<?xml version="1.0" encoding="utf-8"?>
<!-- Generator: Adobe Illustrator 16.0.0, SVG Export Plug-In . SVG Version: 6.00 Build 0)  -->
<!DOCTYPE svg PUBLIC "-//W3C//DTD SVG 1.1//EN" "http://www.w3.org/Graphics/SVG/1.1/DTD/svg11.dtd">
<svg version="1.1" xmlns="http://www.w3.org/2000/svg" xmlns:xlink="http://www.w3.org/1999/xlink" x="0px" y="0px"
	 width="226.77px" height="226.77px" viewBox="0 0 226.77 226.77" enable-background="new 0 0 226.77 226.77" xml:space="preserve">
<g id="Calque_1">
</g>
<g id="Calque_2">
	<circle fill="#939598" cx="14.173" cy="14.173" r="14.173"/>
	<circle fill="#939598" cx="70.867" cy="70.867" r="14.174"/>
	<circle fill="#939598" cx="184.253" cy="70.867" r="14.174"/>
	<circle fill="#939598" cx="127.56" cy="127.561" r="14.174"/>
	<circle fill="#939598" cx="14.172" cy="127.561" r="14.173"/>
	<circle fill="#939598" cx="99.214" cy="184.254" r="14.173"/>
</g>
</svg>
