<?xml version="1.0" encoding="utf-8"?>
<!-- Generator: Adobe Illustrator 16.0.0, SVG Export Plug-In . SVG Version: 6.00 Build 0)  -->
<!DOCTYPE svg PUBLIC "-//W3C//DTD SVG 1.1//EN" "http://www.w3.org/Graphics/SVG/1.1/DTD/svg11.dtd">
<svg version="1.1" xmlns="http://www.w3.org/2000/svg" xmlns:xlink="http://www.w3.org/1999/xlink" x="0px" y="0px"
	 width="226.77px" height="226.77px" viewBox="0 0 226.77 226.77" enable-background="new 0 0 226.77 226.77" xml:space="preserve">
<g id="Calque_1">
	<rect opacity="0.5" fill="#ED1C24" width="28.347" height="28.347"/>
	<rect x="28.347" opacity="0.5" fill="#00AEEF" width="28.347" height="28.347"/>
	<rect x="56.693" opacity="0.5" fill="#ED1C24" width="28.347" height="28.347"/>
	<rect x="85.04" opacity="0.5" fill="#00AEEF" width="28.347" height="28.347"/>
	<rect x="113.385" opacity="0.5" fill="#ED1C24" width="28.347" height="28.347"/>
	<rect x="141.731" opacity="0.5" fill="#00AEEF" width="28.347" height="28.347"/>
	<rect x="170.078" opacity="0.5" fill="#ED1C24" width="28.347" height="28.347"/>
	<rect x="198.425" opacity="0.5" fill="#00AEEF" width="28.347" height="28.347"/>
	<rect x="198.425" y="28.347" opacity="0.5" fill="#ED1C24" width="28.347" height="28.347"/>
	<rect x="0.001" y="28.347" opacity="0.5" fill="#00AEEF" width="28.347" height="28.347"/>
	<rect x="28.348" y="28.347" opacity="0.5" fill="#ED1C24" width="28.347" height="28.347"/>
	<rect x="56.694" y="28.347" opacity="0.5" fill="#00AEEF" width="28.347" height="28.347"/>
	<rect x="85.039" y="28.347" opacity="0.5" fill="#ED1C24" width="28.347" height="28.347"/>
	<rect x="113.386" y="28.347" opacity="0.5" fill="#00AEEF" width="28.347" height="28.347"/>
	<rect x="141.732" y="28.347" opacity="0.5" fill="#ED1C24" width="28.347" height="28.347"/>
	<rect x="170.079" y="28.347" opacity="0.5" fill="#00AEEF" width="28.347" height="28.347"/>
	<rect x="-0.001" y="56.693" opacity="0.5" fill="#ED1C24" width="28.347" height="28.347"/>
	<rect x="28.346" y="56.693" opacity="0.5" fill="#00AEEF" width="28.347" height="28.347"/>
	<rect x="56.692" y="56.693" opacity="0.5" fill="#ED1C24" width="28.347" height="28.347"/>
	<rect x="85.039" y="56.693" opacity="0.5" fill="#00AEEF" width="28.347" height="28.347"/>
	<rect x="113.384" y="56.693" opacity="0.5" fill="#ED1C24" width="28.347" height="28.347"/>
	<rect x="141.73" y="56.693" opacity="0.5" fill="#00AEEF" width="28.347" height="28.347"/>
	<rect x="170.077" y="56.693" opacity="0.5" fill="#ED1C24" width="28.347" height="28.347"/>
	<rect x="198.424" y="56.693" opacity="0.5" fill="#00AEEF" width="28.347" height="28.347"/>
	<rect x="198.424" y="85.04" opacity="0.5" fill="#ED1C24" width="28.347" height="28.347"/>
	<rect y="85.04" opacity="0.5" fill="#00AEEF" width="28.347" height="28.347"/>
	<rect x="28.347" y="85.04" opacity="0.5" fill="#ED1C24" width="28.347" height="28.347"/>
	<rect x="56.693" y="85.04" opacity="0.5" fill="#00AEEF" width="28.347" height="28.347"/>
	<rect x="85.038" y="85.04" opacity="0.5" fill="#ED1C24" width="28.347" height="28.347"/>
	<rect x="113.385" y="85.04" opacity="0.5" fill="#00AEEF" width="28.347" height="28.347"/>
	<rect x="141.731" y="85.04" opacity="0.5" fill="#ED1C24" width="28.347" height="28.347"/>
	<rect x="170.078" y="85.04" opacity="0.5" fill="#00AEEF" width="28.347" height="28.347"/>
	<rect x="0.001" y="113.387" opacity="0.5" fill="#ED1C24" width="28.347" height="28.347"/>
	<rect x="28.348" y="113.387" opacity="0.5" fill="#00AEEF" width="28.347" height="28.347"/>
	<rect x="56.694" y="113.387" opacity="0.5" fill="#ED1C24" width="28.347" height="28.347"/>
	<rect x="85.041" y="113.387" opacity="0.5" fill="#00AEEF" width="28.347" height="28.347"/>
	<rect x="113.386" y="113.387" opacity="0.5" fill="#ED1C24" width="28.347" height="28.347"/>
	<rect x="141.732" y="113.387" opacity="0.5" fill="#00AEEF" width="28.348" height="28.347"/>
	<rect x="170.08" y="113.387" opacity="0.5" fill="#ED1C24" width="28.346" height="28.347"/>
	<rect x="198.426" y="113.387" opacity="0.5" fill="#00AEEF" width="28.348" height="28.347"/>
	<rect x="198.426" y="141.733" opacity="0.5" fill="#ED1C24" width="28.348" height="28.347"/>
	<rect x="0.002" y="141.733" opacity="0.5" fill="#00AEEF" width="28.347" height="28.347"/>
	<rect x="28.349" y="141.733" opacity="0.5" fill="#ED1C24" width="28.347" height="28.347"/>
	<rect x="56.695" y="141.733" opacity="0.5" fill="#00AEEF" width="28.347" height="28.347"/>
	<rect x="85.04" y="141.733" opacity="0.5" fill="#ED1C24" width="28.347" height="28.347"/>
	<rect x="113.387" y="141.733" opacity="0.5" fill="#00AEEF" width="28.348" height="28.347"/>
	<rect x="141.734" y="141.733" opacity="0.5" fill="#ED1C24" width="28.346" height="28.347"/>
	<rect x="170.08" y="141.733" opacity="0.5" fill="#00AEEF" width="28.348" height="28.347"/>
	<rect y="170.08" opacity="0.5" fill="#ED1C24" width="28.347" height="28.347"/>
	<rect x="28.347" y="170.08" opacity="0.5" fill="#00AEEF" width="28.347" height="28.347"/>
	<rect x="56.693" y="170.08" opacity="0.5" fill="#ED1C24" width="28.347" height="28.347"/>
	<rect x="85.04" y="170.08" opacity="0.5" fill="#00AEEF" width="28.347" height="28.347"/>
	<rect x="113.385" y="170.08" opacity="0.5" fill="#ED1C24" width="28.348" height="28.347"/>
	<rect x="141.732" y="170.08" opacity="0.5" fill="#00AEEF" width="28.346" height="28.347"/>
	<rect x="170.078" y="170.08" opacity="0.5" fill="#ED1C24" width="28.348" height="28.347"/>
	<rect x="198.426" y="170.08" opacity="0.5" fill="#00AEEF" width="28.346" height="28.347"/>
	<rect x="198.426" y="198.427" opacity="0.5" fill="#ED1C24" width="28.346" height="28.347"/>
	<rect x="0.001" y="198.427" opacity="0.5" fill="#00AEEF" width="28.347" height="28.347"/>
	<rect x="28.348" y="198.427" opacity="0.5" fill="#ED1C24" width="28.347" height="28.347"/>
	<rect x="56.694" y="198.427" opacity="0.5" fill="#00AEEF" width="28.347" height="28.347"/>
	<rect x="85.039" y="198.427" opacity="0.5" fill="#ED1C24" width="28.347" height="28.347"/>
	<rect x="113.386" y="198.427" opacity="0.5" fill="#00AEEF" width="28.347" height="28.347"/>
	<rect x="141.732" y="198.427" opacity="0.5" fill="#ED1C24" width="28.348" height="28.347"/>
	<rect x="170.08" y="198.427" opacity="0.5" fill="#00AEEF" width="28.346" height="28.347"/>
</g>
<g id="Calque_2">
	<circle fill="#939598" cx="70.866" cy="14.173" r="14.173"/>
	<circle fill="#939598" cx="42.519" cy="99.213" r="14.173"/>
	<circle fill="#939598" cx="127.56" cy="70.867" r="14.173"/>
	<circle fill="#939598" cx="99.211" cy="155.907" r="14.173"/>
	<circle fill="#939598" cx="184.25" cy="184.254" r="14.173"/>
</g>
</svg>
